{
  "total_count": 1,
  "incomplete_results": false,
  "items": [
    {
      "id": 54597585,
      "name": "franrios.github.io",
      "full_name": "franrios/franrios.github.io",
      "owner": {
        "login": "franrios",
        "id": 7302131,
        "avatar_url": "https://avatars0.githubusercontent.com/u/7302131?v=4",
        "gravatar_id": "",
        "url": "https://api.github.com/users/franrios",
        "html_url": "https://github.com/franrios",
        "followers_url": "https://api.github.com/users/franrios/followers",
        "following_url":
          "https://api.github.com/users/franrios/following{/other_user}",
        "gists_url": "https://api.github.com/users/franrios/gists{/gist_id}",
        "starred_url":
          "https://api.github.com/users/franrios/starred{/owner}{/repo}",
        "subscriptions_url":
          "https://api.github.com/users/franrios/subscriptions",
        "organizations_url": "https://api.github.com/users/franrios/orgs",
        "repos_url": "https://api.github.com/users/franrios/repos",
        "events_url": "https://api.github.com/users/franrios/events{/privacy}",
        "received_events_url":
          "https://api.github.com/users/franrios/received_events",
        "type": "User",
        "site_admin": false
      },
      "private": false,
      "html_url": "https://github.com/franrios/franrios.github.io",
      "description": null,
      "fork": false,
      "url": "https://api.github.com/repos/franrios/franrios.github.io",
      "forks_url":
        "https://api.github.com/repos/franrios/franrios.github.io/forks",
      "keys_url":
        "https://api.github.com/repos/franrios/franrios.github.io/keys{/key_id}",
      "collaborators_url":
        "https://api.github.com/repos/franrios/franrios.github.io/collaborators{/collaborator}",
      "teams_url":
        "https://api.github.com/repos/franrios/franrios.github.io/teams",
      "hooks_url":
        "https://api.github.com/repos/franrios/franrios.github.io/hooks",
      "issue_events_url":
        "https://api.github.com/repos/franrios/franrios.github.io/issues/events{/number}",
      "events_url":
        "https://api.github.com/repos/franrios/franrios.github.io/events",
      "assignees_url":
        "https://api.github.com/repos/franrios/franrios.github.io/assignees{/user}",
      "branches_url":
        "https://api.github.com/repos/franrios/franrios.github.io/branches{/branch}",
      "tags_url":
        "https://api.github.com/repos/franrios/franrios.github.io/tags",
      "blobs_url":
        "https://api.github.com/repos/franrios/franrios.github.io/git/blobs{/sha}",
      "git_tags_url":
        "https://api.github.com/repos/franrios/franrios.github.io/git/tags{/sha}",
      "git_refs_url":
        "https://api.github.com/repos/franrios/franrios.github.io/git/refs{/sha}",
      "trees_url":
        "https://api.github.com/repos/franrios/franrios.github.io/git/trees{/sha}",
      "statuses_url":
        "https://api.github.com/repos/franrios/franrios.github.io/statuses/{sha}",
      "languages_url":
        "https://api.github.com/repos/franrios/franrios.github.io/languages",
      "stargazers_url":
        "https://api.github.com/repos/franrios/franrios.github.io/stargazers",
      "contributors_url":
        "https://api.github.com/repos/franrios/franrios.github.io/contributors",
      "subscribers_url":
        "https://api.github.com/repos/franrios/franrios.github.io/subscribers",
      "subscription_url":
        "https://api.github.com/repos/franrios/franrios.github.io/subscription",
      "commits_url":
        "https://api.github.com/repos/franrios/franrios.github.io/commits{/sha}",
      "git_commits_url":
        "https://api.github.com/repos/franrios/franrios.github.io/git/commits{/sha}",
      "comments_url":
        "https://api.github.com/repos/franrios/franrios.github.io/comments{/number}",
      "issue_comment_url":
        "https://api.github.com/repos/franrios/franrios.github.io/issues/comments{/number}",
      "contents_url":
        "https://api.github.com/repos/franrios/franrios.github.io/contents/{+path}",
      "compare_url":
        "https://api.github.com/repos/franrios/franrios.github.io/compare/{base}...{head}",
      "merges_url":
        "https://api.github.com/repos/franrios/franrios.github.io/merges",
      "archive_url":
        "https://api.github.com/repos/franrios/franrios.github.io/{archive_format}{/ref}",
      "downloads_url":
        "https://api.github.com/repos/franrios/franrios.github.io/downloads",
      "issues_url":
        "https://api.github.com/repos/franrios/franrios.github.io/issues{/number}",
      "pulls_url":
        "https://api.github.com/repos/franrios/franrios.github.io/pulls{/number}",
      "milestones_url":
        "https://api.github.com/repos/franrios/franrios.github.io/milestones{/number}",
      "notifications_url":
        "https://api.github.com/repos/franrios/franrios.github.io/notifications{?since,all,participating}",
      "labels_url":
        "https://api.github.com/repos/franrios/franrios.github.io/labels{/name}",
      "releases_url":
        "https://api.github.com/repos/franrios/franrios.github.io/releases{/id}",
      "deployments_url":
        "https://api.github.com/repos/franrios/franrios.github.io/deployments",
      "created_at": "2016-03-23T22:33:43Z",
      "updated_at": "2017-07-17T07:03:26Z",
      "pushed_at": "2017-10-19T17:48:22Z",
      "git_url": "git://github.com/franrios/franrios.github.io.git",
      "ssh_url": "git@github.com:franrios/franrios.github.io.git",
      "clone_url": "https://github.com/franrios/franrios.github.io.git",
      "svn_url": "https://github.com/franrios/franrios.github.io",
      "homepage": null,
      "size": 7032,
      "stargazers_count": 0,
      "watchers_count": 0,
      "language": "CSS",
      "has_issues": true,
      "has_projects": true,
      "has_downloads": true,
      "has_wiki": true,
      "has_pages": true,
      "forks_count": 0,
      "mirror_url": null,
      "archived": false,
      "open_issues_count": 0,
      "forks": 0,
      "open_issues": 0,
      "watchers": 0,
      "default_branch": "master",
      "score": 5.3295507
    }
  ]
}
